=csas5
Godiva
ce_v7_endf
read comp
    uranium 1 den=18.95 1 293
    92238 10.0
    92235 90.0 end
end comp
read param
    gen=1000
    npg=1000
    nsk=50
    htm=yes
end param
read geom
    global unit 1
        sphere 1 1 8.5
end geom
end data
end
