=csas6
pincell
ce_v7.1

read comp
   u-234 1 0  6.11864E-06 900.0 end
   u-235 1 0  7.18132E-04 900.0 end
   u-236 1 0  3.29861E-06 900.0 end
   u-238 1 0  2.21546E-02 900.0 end
   o-16  1 0  4.57642E-02 900.0 end
   he-4  2 0  2.68714E-05 600.0 end
   cr-50  3 0  3.30121E-06 600.0 end
   cr-52  3 0  6.36606E-05 600.0 end
   cr-53  3 0  7.21860E-06 600.0 end
   cr-54  3 0  1.79686E-06 600.0 end
   fe-54  3 0  8.68307E-06 600.0 end
   fe-56  3 0  1.36306E-04 600.0 end
   fe-57  3 0  3.14789E-06 600.0 end
   fe-58  3 0  4.18926E-07 600.0 end
   zr-90  3 0  2.18865E-02 600.0 end
   zr-91  3 0  4.77292E-03 600.0 end
   zr-92  3 0  7.29551E-03 600.0 end
   zr-94  3 0  7.39335E-03 600.0 end
   zr-96  3 0  1.19110E-03 600.0 end
   sn-112 3 0  4.68066E-06 600.0 end
   sn-114 3 0  3.18478E-06 600.0 end
   sn-115 3 0  1.64064E-06 600.0 end
   sn-116 3 0  7.01616E-05 600.0 end
   sn-117 3 0  3.70592E-05 600.0 end
   sn-118 3 0  1.16872E-04 600.0 end
   sn-119 3 0  4.14504E-05 600.0 end
   sn-120 3 0  1.57212E-04 600.0 end
   sn-122 3 0  2.23417E-05 600.0 end
   sn-124 3 0  2.79392E-05 600.0 end
   hf-174 3 0  3.54138E-09 600.0 end
   hf-176 3 0  1.16423E-07 600.0 end
   hf-177 3 0  4.11686E-07 600.0 end
   hf-178 3 0  6.03806E-07 600.0 end
   hf-179 3 0  3.01460E-07 600.0 end
   hf-180 3 0  7.76449E-07 600.0 end
   h-1  4 0 4.41993E-02 600.0 end
   b-10 4 0 4.40022E-06 600.0 end
   b-11 4 0 1.77115E-05 600.0 end
   o-16 4 0 2.20485E-02 600.0 end
end comp

read geometry
  global unit 1
     cylinder 1  0.4096  -0.63 0.63
     cylinder 2  0.4180  -0.63 0.63
     cylinder 3  0.4750  -0.63 0.63
     cuboid   4  -0.63 0.63 -0.63 0.63 -0.63 0.63
     media 1 1 1
     media 2 1 2 -1
     media 3 1 3 -2
     media 4 1 4 -3
     boundary 4
end geometry

read bounds
  all=refl
end bounds

read parm
  gen=110
  npg=5000
  nsk=10
  htm=no
  run=yes
end parm

end data
end
